{
    "name": "Daily.DebugConsole",
    "rootNamespace": "",
    "references": [
        "GUID:4e921b3e2f28f354eb6cba7202ee1639"
    ],
    "includePlatforms": [],
    "excludePlatforms": [],
    "allowUnsafeCode": false,
    "overrideReferences": false,
    "precompiledReferences": [],
    "autoReferenced": true,
    "defineConstraints": [],
    "versionDefines": [],
    "noEngineReferences": false
}